{
    "imports": {
      "single-spa": "https://cdnjs.cloudflare.com/ajax/libs/single-spa/5.3.2/system/single-spa.min.js",
      "vue": "https://cdn.jsdelivr.net/npm/vue@2.6.10/dist/vue.js",
      "vue-router": "https://cdn.jsdelivr.net/npm/vue-router@3.0.7/dist/vue-router.min.js",
      "react": "https://cdn.jsdelivr.net/npm/react@16.13.1/umd/react.development.js",
      "react-dom": "https://cdn.jsdelivr.net/npm/react-dom@16.13.1/umd/react-dom.development.js",
      "pubsub-js": "https://cdnjs.cloudflare.com/ajax/libs/pubsub-js/1.7.0/pubsub.js"
    }
  }